{
    "image-68%20copy.png": "image-0.png",
    "image-122.png": "image-1.png",
    "luffarschack.png": "image-2.png",
    "image-60 copy.png&gt;": "image-3.png&gt;",
    "image-61 copy.png&gt;": "image-4.png&gt;",
    "image-62 copy.png&gt;": "image-5.png&gt;",
    "image-63 copy.png&gt;": "image-6.png&gt;",
    "image-64 copy.png&gt;": "image-7.png&gt;",
    "image-65 copy.png&gt;": "image-8.png&gt;",
    "image-66 copy.png&gt;": "image-9.png&gt;",
    "image-67 copy.png&gt;": "image-10.png&gt;",
    "image-128.png": "image-11.png",
    "image-129.png": "image-12.png",
    "image-130.png": "image-13.png",
    "image-57 copy.png&gt;": "image-14.png&gt;",
    "image-58 copy.png&gt;": "image-15.png&gt;",
    "labb-2c.png": "image-16.png",
    "image-24%20copy.png": "image-17.png",
    "image-25%20copy.png": "image-18.png",
    "image-21%20copy.png": "image-19.png",
    "image-22%20copy.png": "image-20.png",
    "image-23%20copy.png": "image-21.png",
    "image-27%20copy.png": "image-22.png",
    "image-28%20copy.png": "image-23.png",
    "image-29%20copy.png": "image-24.png",
    "image-30%20copy.png": "image-25.png",
    "image-31%20copy.png": "image-26.png",
    "image-45%20copy.png": "image-27.png",
    "image-46%20copy.png": "image-28.png",
    "image-47%20copy.png": "image-29.png",
    "image-48%20copy.png": "image-30.png",
    "image-32 copy.png&gt;": "image-31.png&gt;",
    "image-33 copy.png&gt;": "image-32.png&gt;",
    "image-34 copy.png&gt;": "image-33.png&gt;",
    "image-35 copy.png&gt;": "image-34.png&gt;",
    "image-44%20copy.png": "image-35.png",
    "image-37%20copy.png": "image-36.png",
    "image-38%20copy.png": "image-37.png",
    "image-39%20copy.png": "image-38.png",
    "image-40%20copy.png": "image-39.png",
    "image-41%20copy.png": "image-40.png",
    "image-42%20copy.png": "image-41.png",
    "image-43%20copy.png": "image-42.png",
    "image-49%20copy.png": "image-43.png",
    "image-50%20copy.png": "image-44.png",
    "image-51%20copy.png": "image-45.png",
    "image-52%20copy.png": "image-46.png",
    "image-53%20copy.png": "image-47.png",
    "image-54%20copy.png": "image-48.png",
    "image-55%20copy.png": "image-49.png",
    "image-56%20copy.png": "image-50.png",
    "image-123.png": "image-51.png",
    "image-125.png": "image-52.png",
    "image-124.png": "image-53.png",
    "image-126.png": "image-54.png",
    "image-127.png": "image-55.png",
    "vscode.png": "image-56.png",
    "image-115.png": "image-57.png",
    "image-62.png": "image-58.png",
    "image-63.png": "image-59.png",
    "image-64.png": "image-60.png",
    "image-65.png": "image-61.png",
    "image-66.png": "image-62.png",
    "image-67.png": "image-63.png",
    "image-57.png": "image-64.png",
    "image-58.png": "image-65.png",
    "image-59.png": "image-66.png",
    "image-61 (1).png&gt;": "image-67.png&gt;",
    "image-113.png": "image-68.png",
    "image-114.png": "image-69.png",
    "url.png": "image-70.png",
    "Mars_-_August_30_2021_-_Flickr_-_Kevin_M._Gill.png": "image-71.png",
    "475px-Ra_and_dec_on_celestial_sphere.png": "image-72.png",
    "image-95.png": "image-73.png",
    "image-94.png": "image-74.png",
    "Exempel_InteraktivBerattelse.exe": "Exempel_InteraktivBerattelse.exe",
    "image-72.png": "image-76.png",
    "image-73.png": "image-77.png",
    "image-68.png": "image-78.png",
    "image-69.png": "image-79.png",
    "image-70.png": "image-80.png",
    "image-71.png": "image-81.png",
    "image-74.png": "image-82.png",
    "image-97.png": "image-83.png",
    "image-54.png": "image-84.png",
    "image-116.png": "image-85.png",
    "image-118.png": "image-86.png",
    "image-51.webp": "image-87.webp",
    "image-52.png": "image-88.png",
    "image-53.jpg": "image-89.jpg",
    "image-119.png": "image-90.png",
    "image-96.png": "image-91.png",
    "image-98.png": "image-92.png",
    "preview_937.png": "image-93.png",
    "images.jpg": "image-94.jpg",
    "image-38.png": "image-95.png",
    "image-39.png": "image-96.png",
    "image-35.jpg": "image-97.jpg",
    "image-121.png": "image-98.png",
    "International_Morse_Code.png": "image-99.png",
    "image-120.png": "image-100.png",
    "image-99.png": "image-101.png",
    "image-48.png": "image-102.png",
    "image-46.png": "image-103.png",
    "image-47.png": "image-104.png",
    "image-104.png": "image-105.png",
    "image-111.png": "image-106.png",
    "image-110.png": "image-107.png",
    "image-109.png": "image-108.png",
    "image-103.png": "image-109.png",
    "image-112.png": "image-110.png",
    "image-105.png": "image-111.png",
    "image-108.png": "image-112.png",
    "image-106.png": "image-113.png",
    "pong.png": "image-114.png",
    "image-101.png": "image-115.png",
    "image-100.png": "image-116.png",
    "blackjack.png": "image-117.png",
    "death.png": "image-118.png",
    "lander.png": "image-119.png",
    "brain.png": "image-120.png",
    "roulett.png": "image-121.png",
    "snake.png": "image-122.png",
    "tic-tac-toe.png": "image-123.png",
    "map.png": "image-124.png",
    "image-9.png": "image-125.png",
    "image-7.png": "image-126.png",
    "image-8.png": "image-127.png",
    "full-moon.png": "image-128.png",
    "image-11.png": "image-129.png",
    "image-6.png": "image-130.png",
    "image-14.png": "image-131.png",
    "image-17.png": "image-132.png",
    "image-24.png": "image-133.png",
    "image-25.png": "image-134.png",
    "image-26.png": "image-135.png",
    "image-27.png": "image-136.png",
    "image-18.png": "image-137.png",
    "image-20.png": "image-138.png",
    "image-21.png": "image-139.png",
    "image-22.png": "image-140.png",
    "image-23.png": "image-141.png",
    "image-85.png": "image-142.png",
    "image.png": "image-143.png",
    "image-35.png": "image-144.png",
    "image-78.png": "image-145.png",
    "image-79.png": "image-146.png",
    "image-80.png": "image-147.png",
    "image-93.png": "image-148.png",
    "image-81.png": "image-149.png",
    "image-82.png": "image-150.png",
    "image-83.png": "image-151.png",
    "image-84.png": "image-152.png",
    "image-86.png": "image-153.png",
    "image-87.png": "image-154.png",
    "image-88.png": "image-155.png",
    "image-89.png": "image-156.png",
    "image-90.png": "image-157.png",
    "image-91.png": "image-158.png"
}